{
"title": "Specialties",
"model": "StudyProgramCourses",
"columns": [
  {
    "name": "course/displayCode",
    "property": "courseID",
    "title": "Courses.displayCode"
  },
  {
    "name": "course/name",
    "property": "title",
    "title": "Courses.titleLabel"
  },
  {
    "name":"course/courseArea/name",
    "property": "courseArea",
    "title":"Courses.courseArea"
  },
  {
    "name":"sortIndex",
    "property": "sortIndex",
    "title":"StudyPrograms.SortIndex"
  },
  {
    "name": "course/ects",
    "property": "ects",
    "title": "Courses.ects"
  },
  {
    "name":"course/units",
    "property": "units",
    "title":"Courses.units"
  }
]
}
