{
  "$schema": "https://universis.gitlab.io/ngx-tables/schemas/v1/schema.json",
  "model": "StudyPrograms",
  "searchExpression": "(indexof(name, '${text}') ge 0)",
  "multipleSelect": true,
  "selectable": true,
  "columns": [
    {
      "name": "id",
      "property": "id",
      "title": "Settings.Attributes.id",
      "hidden": true
    },
    {
      "name": "isActive",
      "title": "Courses.IsEnabledLabel",
      "formatters": [
        {
          "formatter": "TrueFalseFormatter"
        },
        {
          "formatter": "NgClassFormatter",
          "formatOptions": {
            "ngClass": {
              "text-success": "${isActive===1}",
              "text-danger": "${!isActive}"
            }
          }
        }
      ]
    },

    {
      "name": "name",
      "title": "Settings.Attributes.title",
      "hidden": false
    },
    {
      "name": "abbreviation",
      "title": "Settings.Attributes.abbreviation",
      "hidden": false
    },
    {
      "name": "department/name",
      "property": "departmentName",
      "title": "Settings.Attributes.departmentName",
      "hidden": false
    },
    {
      "name": "printName",
      "property": "printName",
      "title": "Settings.Attributes.departmentName",
      "hidden": true
    },
    {
      "name": "haheUnitCode",
      "property": "haheUnitCode",
      "title": "Settings.Attributes.unitCodeHahe",
      "virtual": true,
      "sortable": false,
      "formatters": [
        {
          "formatter": "TemplateFormatter",
          "formatString": "${ obj.hasOwnProperty('haheUnit') ?haheUnit && haheUnit.unitCode:'-'}"
        }
      ]
    },
    {
      "name": "haheUnitTitle",
      "property": "haheUnitTitle",
      "title": "Settings.Attributes.unitTitle",
      "virtual": true,
      "sortable": false,
      "formatters": [
        {
          "formatter": "TemplateFormatter",
          "formatString": "${ obj.hasOwnProperty('haheUnit') ?haheUnit && haheUnit.title:'-'}"
        }
      ]
    }
  ],
  "defaults": {
    "filter": "department eq departments()",
    "expand": "haheUnit"
  },
  "criteria": [
    {
      "name": "name",
      "filter": "(indexof(name, '${value}') ge 0)",
      "type": "text"
    },
    {
      "name": "department",
      "filter": "(department eq '${value}')",
      "type": "text"
    },
    {
      "name": "studyLevel",
      "filter": "(studyLevel eq ${value})",
      "type": "text"
    },
    {
      "name": "isActive",
      "filter": "(isActive eq '${value}')",
      "type": "text"
    }
  ]
}
