{
  "title": "AttachmentTypes",
  "model": "AttachmentTypes",
  "searchExpression":"(indexof(name, '${text}') ge 0 )",
  "columns": [
    {
      "name":"id",
      "property": "id",
      "formatter": "ActionLinkFormatter",
      "actions" : [
        {
          "title": "AttachmentTypes.Preview",
          "href": "#/attachment-types/${id}/"
        },
        {
          "title": "AttachmentTypes.Edit",
          "href": "#/attachment-types/${id}/edit"
        }
      ]
    },
    {
      "name":"name",
      "property": "name",
      "title":"AttachmentTypes.Name"
    },
    {
      "name":"alternateName",
      "property": "alternateName",
      "title":"AttachmentTypes.AlternateName"
    },
    {
      "name":"description",
      "property": "description",
      "title":"AttachmentTypes.Description"
    }
  ],
  "defaults":{
  },
  "criteria": [
    {
      "name": "name",
      "filter": "(indexof(name, '${value}') ge 0)",
      "type": "text"
    }
  ],
  "paths" : [
    {
      "name": "AttachmentTypes.All",
      "alternateName": "list/index",
      "show": true,
      "filter": {

      }
    }
  ]
}
