{
  "model": "ExamPeriods",
  "title": "Settings.NewItem",
  "settings": {
    "i18n": {
      "el": {
        "Unique Identifier": "Μοναδικός αναγνωριστικός κωδικός",
        "Permitted academic Periods": "Επιτρεπόμενες ακαδημαϊκές περίοδοι",
        "Repetitive": "Επαναληπτική",
        "Set the name of this item":"Ορίστε την ονομασία του στοιχείου",
        "Set an alternate name for this item. This name will be used to identify items":"Ορίστε μία εναλλακτική ονομασία για αυτό το στοιχείο. Αυτό το όνομα θα χρησιμοποιηθεί για την ταυτοποίηση του στοιχείου",
        "Set if this exam period is for repetitive examinations": "Ορίστε αν η εξεταστική περίοδος είναι επαναληπτική",
        "Select the academic periods this exam period is valid for." : "Ορίστε τις ακαδημαϊκές περιόδους για τις οποίες είναι έγκυρη η εξεταστική αυτή."
      }
    }
  },
  "components": [
    {
      "type": "fieldset",
      "components": [
        {
          "label": "HTML",
          "tag": "h5",
          "className": "font-weight-normal",
          "content": "{{form.subtitle}}",
          "refreshOnChange": false,
          "tableView": false,
          "key": "subtitle",
          "type": "htmlelement",
          "input": false
        },
        {
          "columns": [
            {
              "components": [
                {
                  "label": "Unique Identifier",
                  "labelPosition": "top",
                  "widget": {
                    "type": "input"
                  },
                  "validate": {
                    "required": true
                  },
                  "key": "id",
                  "type": "number",
                  "input": true,
                  "disabled": false,
                  "description": "Set the name of this item"
                }
              ],
              "width": 6
            },
            {
              "components": [
                {
                  "label": "Name",
                  "labelPosition": "top",
                  "widget": {
                    "type": "input"
                  },
                  "validate": {
                    "required": true
                  },
                  "key": "name",
                  "type": "textfield",
                  "input": true,
                  "disabled": false,
                  "description": "Set the name of this item"
                }
              ],
              "width": 6
            },
            {
              "components": [
                {
                  "label": "AlternateName",
                  "labelPosition": "top",
                  "widget": {
                    "type": "input"
                  },
                  "validate": {
                    "required": true,
                    "pattern": "^.{1,50}$",
                    "customMessage": "This field must contain up to 50 characters. A value is required."
                  },
                  "key": "alternateName",
                  "type": "textfield",
                  "input": true,
                  "description": "Set an alternate name for this item. This name will be used to identify items"
                }
              ],
              "width": 6
            },
            {
              "components": [
                {
                  "label": "Permitted academic Periods",
                  "labelPosition": "top",
                  "widget": "choicesjs",
                  "dataSrc": "url",
                  "data": {
                    "url": "AcademicPeriods?$orderby=id desc&$select=id,name",
                    "headers": []
                  },
                  "selectThreshold": 0.3,
                  "template": "<span class='d-block pr-5 text-truncate'>{{ item.name }}</span>",
                  "valueProperty": "id",
                  "selectValues": "value",
                  "lazyLoad": false,
                  "type": "select",
                  "tableView": true,
                  "multiple": true,
                  "key": "academicPeriods",
                  "input": true,
                  "description": "Select the academic periods this exam period is valid for."
                }
              ],
              "width": 6
            },
            {
              "components": [
                {
                  "label": "Repetitive",
                  "labelPosition": "top",
                  "key": "isLate",
                  "input": true,
                  "description": "Set if this exam period is for repetitive examinations",
                  "tableView": false,
                  "type": "checkbox",
                  "defaultValue": false
                }
              ],
              "width": 6
            },
            {
              "components": [
                {
                  "label": "State",
                  "labelPosition": "top",
                  "widget": {
                    "type": "custom"
                  },
                  "key": "$state",
                  "type": "number",
                  "input": true,
                  "disabled": false,
                  "clearOnHide": false,
                  "lazyLoad": true,
                  "hidden": true
                }
              ],
              "width": 3
            }
          ],
          "customClass": "text-dark",
          "hideLabel": true,
          "type": "columns",
          "input": false
        }
      ]
    },
    {
      "type": "button",
      "label": "Submit",
      "key": "submit",
      "disableOnInvalid": true,
      "input": true
    }
  ]
}
