{
  "settings": {
    "i18n": {
      "el": {
        "Add graduation requests": "Προσθήκη αιτήσεων ορκωμοσίας",
        "Select the date students where checked on": "Επιλέξτε την ημερομηνία που ελέγχθηκαν οι φοιτητές",
        "Check date": "Ημερομηνία ελέγχου",
        "Total students checked": "Σύνολο φοιτητών που ελέγχθηκαν",
        "Total students rules met": "Σύνολο φοιτητών που πληρούν τις προϋποθέσεις",
        "Note: The process will try to generate graduation requests ONLY for students that meet the graduation rules and don't have other active graduation request." :"Σημείωση: Η διαδικασία θα προσπαθήσει να δημιουργήσει αιτήσεις ορκωμοσίας ΜΟΝΟ για τους φοιτητές που πληρούν τις προϋποθέσεις λήψης πτυχίου και εφόσον δεν υπάρχουν άλλες ενεργές αιτήσεις ορκωμοσίας."
      }
    }
  },
  "components": [
    {
      "type": "fieldset",
      "key": "fieldSet",
      "input": false,
      "components": [
        {
          "columns": [
            {
              "components": [
                {
                  "label": "Check date",
                  "widget": "choicesjs",
                  "dataSrc": "url",
                  "customConditional": "show = !!data.department;",
                  "data": {
                    "url": "GraduationRuleValidateActions?$filter=department eq {{data.department}}&$orderby=dateCreated desc&$expand=results($select=count(id) as total,result,action;$groupby=action,result)",
                    "headers": []
                  },
                  "selectThreshold": 0.3,
                  "validate": {
                    "unique": false,
                    "multiple": false
                  },
                  "template": "<span class='d-block pr-5 text-truncate'>{{moment(item.dateCreated).locale(instance.i18next.language).format('LLL')}}</span>",
                  "key": "action",
                  "dataType": "object",
                  "idPath": "id",
                  "selectValues": "value",
                  "type": "select",
                  "input": true,
                  "hideOnChildrenHidden": false,
                  "disableLimit": false,
                  "lazyLoad": false,
                  "validate": {
                    "required": true
                  },
                  "description": "Select the date students where checked on"
                }
              ],
              "width": 8
            },
            {
              "components": [
                {
                  "label": "Total students checked",
                  "tableView": true,
                  "refreshOn": "action",
                  "calculateValue": "value = data.action.totalStudents",
                  "key": "data.action.totalStudents",
                  "customConditional": "show = !!data.action",
                  "type": "textfield",
                  "input": true,
                  "clearOnRefresh": true
                }
              ],
              "width": 8
            },
            {
              "components": [
                {
                  "label": "Total students rules met",
                  "tableView": true,
                  "refreshOn": "action",
                  "calculateValue": "if(data.action.results && data.action.results.length>0) \n{\n  const res= data.action.results.find(x=>{return x.result===true});\n  if (res)\n  {\n    value=res.total\n  }\n  else\n  {value=0;}\n} ",
                  "key": "totalStudentsRulesMet",
                  "customConditional": "show = !!data.action",
                  "type": "textfield",
                  "input": true,
                  "clearOnRefresh": true,
                  "description": "Note: The process will try to generate graduation requests ONLY for students that meet the graduation rules and don't have other active graduation request."
                }
              ],
              "width": 8
            }
          ],
          "customClass": "text-dark",
          "hideLabel": true,
          "type": "columns",
          "input": false
        }
      ]
    }
  ]
}
