{
  "model": "StudentCourses",
  "title": "Student Courses",
  "subtitle": "Courses.ChangeCourseAttributes",
  "display": "form",
  "settings": {
    "i18n": {
      "el": {
        "Change course attributes": "Αλλαγή ιδιοτήτων μαθήματος",
        "Course": "Μάθημα",
        "Type": "Τύπος",
        "Course Title": "Τίτλος μαθήματος",
        "Units": "Διδακτικές μονάδες",
        "Hours": "Ώρες",
        "ECTS": "ECTS",
        "Calculated in degree": "Υπολογίζεται στη λήψη πτυχίου",
        "Calculated in degree grade": "Υπολογίζεται στο βαθμό του πτυχίου",
        "Calculated Units": "Υπολογίζεται στις μονάδες",
        "Calculated Grade": "Υπολογίζεται στο βαθμό",
        "Note: Fill ONLY the course attributes you would like to modify. This process will be executed asynchronously, you can see the results by navigating to course actions": "Σημείωση: Συμπληρώστε ΜΟΝΟ τις ιδιότητες του μαθήματος που θέλετε να τροποποιηθούν. Αυτή η διαδικασία θα εκτελεστεί ασύγχρονα, μπορείτε να δείτε τα αποτελέσματα μεταβαίνοντας στις ενέργειες του μαθήματος",
        "Set the course title for this alternate language": "Ορίστε τον τίτλο του μαθήματος σε αυτήν την εναλλακτική γλώσσα"
      }
    }
  },
  "components": [
    {
      "type": "fieldset",
      "components": [
        {
          "label": "HTML",
          "tag": "h4",
          "className": "font-weight-normal",
          "content": "Change course attributes",
          "refreshOnChange": false,
          "tableView": false,
          "key": "subtitle",
          "type": "htmlelement",
          "input": false
        },

        {
          "columns": [
            {
              "components": [
                {
                  "label": "Course Title",
                  "spellcheck": true,
                  "widget": {
                    "type": "input"
                  },
                  "key": "courseTitle",
                  "type": "textfield",
                  "input": true,
                  "hideOnChildrenHidden": false
                },
                {
                  "label": "Type",
                  "labelPosition": "top",
                  "widget": "choicesjs",
                  "dataSrc": "url",
                  "data": {
                    "url": "CourseTypes?$top=-1&$orderby=name",
                    "headers": []
                  },
                  "template": "<span class='col-4 text-truncate'>{{ item.name }}</span>",
                  "selectValues": "value",
                  "key": "courseType",
                  "dataType": "object",
                  "idPath": "id",
                  "searchEnabled": false,
                  "type": "select",
                  "input": true,
                  "lazyLoad": false
                },
                {
                  "label": "Semester",
                  "labelPosition": "top",
                  "widget": "choicesjs",
                  "dataSrc": "url",
                  "data": {
                    "url": "Semesters?$orderby=id",
                    "headers": []
                  },
                  "template": "<span class='col-4 text-truncate'>{{ item.name }}</span>",
                  "selectValues": "value",
                  "key": "semester",
                  "searchEnabled": false,
                  "type": "select",
                  "input": true,
                  "lazyLoad": false
                },
                {
                  "label": "Notes",
                  "labelPosition": "top",
                  "widget": {
                    "type": "input"
                  },
                  "key": "notes",
                  "type": "textarea",
                  "input": true,
                  "customClass": "my-3 py-3"
                }
              ],
              "width": 6,
              "offset": 0,
              "push": 0,
              "pull": 0
            },
            {
              "components": [
                {
                  "label": "Units",
                  "mask": false,
                  "spellcheck": true,
                  "tableView": false,
                  "delimiter": false,
                  "requireDecimal": false,
                  "inputFormat": "plain",
                  "key": "units",
                  "type": "number",
                  "input": true,
                  "hideOnChildrenHidden": false
                },
                {
                  "label": "ECTS",
                  "mask": false,
                  "spellcheck": true,
                  "tableView": false,
                  "delimiter": false,
                  "requireDecimal": false,
                  "inputFormat": "plain",
                  "key": "ects",
                  "type": "number",
                  "input": true,
                  "hideOnChildrenHidden": false
                },
                {
                  "label": "Hours",
                  "mask": false,
                  "spellcheck": true,
                  "tableView": false,
                  "delimiter": false,
                  "requireDecimal": false,
                  "inputFormat": "plain",
                  "key": "hours",
                  "type": "number",
                  "input": true,
                  "hideOnChildrenHidden": false
                }
              ],
              "width": 6,
              "offset": 0,
              "push": 0,
              "pull": 0
            }
          ],
          "hideLabel": true,
          "type": "columns",
          "input": false
        },

        {
          "components": [
            {
              "key": "fieldSet",
              "type": "fieldset",
              "input": false,
              "customClass": "mt-2 font-weight-normal",
              "components": [
                {
                  "label": "",
                  "hideLabel": true,
                  "key": "locales",
                  "type": "datagrid",
                  "customConditional": "show = data.availableLocales && data.availableLocales.length",
                  "customDefaultValue": "value = data.availableLocales",
                  "disableAddingRemovingRows": true,
                  "input": true,
                  "customClass": "fix-panel-for-locales border-0 p-0",
                  "components": [
                    {
                      "collapsible": false,
                      "hideLabel": true,
                      "key": "panel",
                      "type": "panel",
                      "title": "",
                      "hideTitle": true,
                      "input": false,
                      "tableView": false,
                      "components": [
                        {
                          "content": "<div class=\"h6 font-weight-bold text-secondary border-bottom pb-3 border-gray-200 font-weight-normal\">{{instance.t(row.inLanguage)}}</div>",
                          "refreshOnChange": false,
                          "key": "html",
                          "type": "htmlelement",
                          "input": false,
                          "tableView": false,
                          "customConditional": "show = row.inLanguage && row.inLanguage.length"
                        },
                        {
                          "label": "Course Title",
                          "tableView": true,
                          "description": "Set the course title for this alternate language",
                          "key": "courseTitle",
                          "type": "textfield",
                          "input": true
                        }
                      ]
                    }
                  ]
                }
              ]
            }
          ],
          "width": 12
        },
        {
          "label": "HTML",
          "tag": "div",
          "className": "pt-2 form-text text-muted",
          "content": "Note: Fill ONLY the course attributes you would like to modify. This process will be executed asynchronously, you can see the results by navigating to course actions",
          "refreshOnChange": false,
          "tableView": false,
          "key": "subtitle",
          "type": "htmlelement",
          "input": false
        }
      ]
    }
  ]
}
